banbinhthuongvi_viterbi_v8/banbinhthuongvi_viterbi_v8/sim/waves/viterbi_activity.vcd
$date
    May 14, 2026  14:50:37
$end
$version
    TOOL:	xmsim(64)	25.09-s004
$end
$timescale
    1 ps
$end

$scope module tb_viterbi_decoder_fileio $end

$scope module dut $end
$var wire      1 !    clk  $end
$var wire      1 "    rst_n  $end
$var wire      1 #    en  $end
$var wire     16 $    i_data [15:0] $end
$var reg       8 %    o_data [7:0] $end
$var reg       1 &    o_done $end
$var parameter  3 '    INF [2:0] $end
$var reg       1 (    busy $end
$var reg       8 )    frame_low [7:0] $end
$var reg      12 *    pm_mid [11:0] $end
$var reg      12 +    dec123 [11:0] $end
$var wire      1 ,    start_decode  $end
$var wire     28 -    first4 [27:0] $end
$var wire     11 .    last4 [10:0] $end
$var wire     12 /    pm4_next [11:0] $end
$var wire      4 0    dec1_next [3:0] $end
$var wire      4 1    dec2_next [3:0] $end
$var wire      4 2    dec3_next [3:0] $end
$var wire      4 3    dec1 [3:0] $end
$var wire      4 4    dec2 [3:0] $end
$var wire      4 5    dec3 [3:0] $end
$var wire      4 6    dec4 [3:0] $end
$var wire      4 7    dec5 [3:0] $end
$var wire      4 8    dec6 [3:0] $end
$var wire      4 9    dec7 [3:0] $end
$var reg       2 :    s7 [1:0] $end
$var reg       2 ;    s6 [1:0] $end
$var reg       2 <    s5 [1:0] $end
$var reg       2 =    s4 [1:0] $end
$var reg       2 >    s3 [1:0] $end
$var reg       2 ?    s2 [1:0] $end
$var reg       2 @    s1 [1:0] $end
$var reg       8 A    decoded_path [7:0] $end

$scope function sat3 $end
$var reg       3 B    sat3 [2:0] $end
$var reg       4 C    x [3:0] $end
$upscope $end


$scope function acs_step $end
$var reg      16 D    acs_step [15:0] $end
$var reg       3 E    p0 [2:0] $end
$var reg       3 F    p1 [2:0] $end
$var reg       3 G    p2 [2:0] $end
$var reg       3 H    p3 [2:0] $end
$var reg       2 I    rx [1:0] $end
$var reg       2 J    bm00 [1:0] $end
$var reg       2 K    bm01 [1:0] $end
$var reg       2 L    bm10 [1:0] $end
$var reg       2 M    bm11 [1:0] $end
$var reg       4 N    c0a [3:0] $end
$var reg       4 O    c0b [3:0] $end
$var reg       4 P    c1a [3:0] $end
$var reg       4 Q    c1b [3:0] $end
$var reg       4 R    c2a [3:0] $end
$var reg       4 S    c2b [3:0] $end
$var reg       4 T    c3a [3:0] $end
$var reg       4 U    c3b [3:0] $end
$var reg       1 V    sel0 $end
$var reg       1 W    sel1 $end
$var reg       1 X    sel2 $end
$var reg       1 Y    sel3 $end
$var reg       3 Z    pn0 [2:0] $end
$var reg       3 [    pn1 [2:0] $end
$var reg       3 \    pn2 [2:0] $end
$var reg       3 ]    pn3 [2:0] $end
$upscope $end


$scope function acs_tail6 $end
$var reg       8 ^    acs_tail6 [7:0] $end
$var reg       3 _    p0 [2:0] $end
$var reg       3 `    p1 [2:0] $end
$var reg       3 a    p2 [2:0] $end
$var reg       3 b    p3 [2:0] $end
$var reg       2 c    rx [1:0] $end
$var reg       2 d    bm00 [1:0] $end
$var reg       2 e    bm01 [1:0] $end
$var reg       2 f    bm10 [1:0] $end
$var reg       2 g    bm11 [1:0] $end
$var reg       4 h    c0a [3:0] $end
$var reg       4 i    c0b [3:0] $end
$var reg       4 j    c1a [3:0] $end
$var reg       4 k    c1b [3:0] $end
$var reg       1 l    sel0 $end
$var reg       1 m    sel1 $end
$var reg       3 n    pn0 [2:0] $end
$var reg       3 o    pn1 [2:0] $end
$upscope $end


$scope function acs_tail7_dec $end
$var reg       1 p    acs_tail7_dec $end
$var reg       3 q    p0 [2:0] $end
$var reg       3 r    p1 [2:0] $end
$var reg       2 s    rx [1:0] $end
$var reg       2 t    bm00 [1:0] $end
$var reg       2 u    bm11 [1:0] $end
$var reg       4 v    c0a [3:0] $end
$var reg       4 w    c0b [3:0] $end
$upscope $end


$scope function acs4_full $end
$var reg      28 x    acs4_full [27:0] $end
$var reg      12 y    pm_in [11:0] $end
$var reg       8 z    rx4 [7:0] $end
$var reg      16 {    r0 [15:0] $end
$var reg      16 |    r1 [15:0] $end
$var reg      16 }    r2 [15:0] $end
$var reg      16 ~    r3 [15:0] $end
$upscope $end


$scope function acs4_tail_pruned $end
$var reg      11 !!   acs4_tail_pruned [10:0] $end
$var reg      12 "!   pm_in [11:0] $end
$var reg       8 #!   rx4 [7:0] $end
$var reg      16 $!   r4 [15:0] $end
$var reg      16 %!   r5 [15:0] $end
$var reg       8 &!   r6 [7:0] $end
$var reg       1 '!   d7 $end
$upscope $end

$upscope $end

$upscope $end

$enddefinitions $end
$dumpvars
b111 '
0!
0"
0#
b0 $
bx %
0&
0(
bx )
bx *
bx +
0,
b11010011000 -
bx .
b11010011000 /
b0 0
b0 1
b0 2
bx 3
bx 4
bx 5
bx 6
bx 7
b0xx 8
b0x 9
b0x :
bx ;
bx <
bx =
bx >
bx ?
bx @
bx00 A
b11 B
b11 C
b11010011000 D
b0 E
b11 F
b10 G
b11 H
b0 I
b0 J
b1 K
b1 L
b10 M
b0 N
b101 O
b11 P
b100 Q
b10 R
b11 S
b11 T
b100 U
0V
0W
0X
0Y
b0 Z
b11 [
b10 \
b11 ]
bx ^
bx _
bx `
bx a
bx b
bx c
bx d
bx e
bx f
bx g
bx h
bx i
bx j
bx k
xl
xm
bx n
bx o
xp
bx q
bx r
bx s
bx t
bx u
bx v
bx w
b11010011000 x
b111111111000 y
b0 z
b111010111000 {
b11010011000 |
b11010011000 }
b11010011000 ~
bx !!
bx "!
bx #!
bx $!
bx %!
bx &!
x'!
$end
#2775
1!
#5550
0!
#8325
1!
#11100
0!
#13875
1!
#14875
1"
#16650
0!
#19425
1!
#22200
0!
#24975
1!
#27750
1#
b1000000000000000 $
0!
b10000000 z
b111 F
b111 G
b111 H
b10 I
b1 J
b10 K
b0 L
b1 M
b1 N
b1000 O
b111 P
b1001 Q
b1 R
b1000 S
b1001 T
b111 U
1Y
b1 C
b1 B
b1 Z
b111 C
b111 B
b111 [
b1 C
b1 B
b1 \
b111 C
b111 B
b111 ]
b1000111001111001 D
b1000111001111001 {
b1 E
b1 G
b0 I
b0 J
b1 K
b1 L
b10 M
b1001 O
b10 P
b1000 Q
b11 R
b111 S
b10 T
b1000 U
0Y
b1 C
b1 B
b10 C
b10 B
b10 [
b11 C
b11 B
b11 \
b10 C
b10 B
b10 ]
b10011010001 D
b10011010001 |
b10 F
b11 G
b10 H
b100 O
b100 P
b11 Q
b10 S
b100 T
b11 U
1W
1X
1Y
b1 C
b1 B
b11 C
b11 B
b11 [
b10 C
b10 B
b10 \
b11 C
b11 B
b11 ]
b1110011010011001 D
b1110011010011001 }
b11 F
b10 G
b11 H
b101 O
b11 P
b100 Q
b11 S
b11 T
b100 U
0W
0X
0Y
b1 C
b1 B
b11 C
b11 B
b11 \
b11011011001 D
b11011011001 ~
b111000001000011011011001 x
b111000001000011011011001 -
1,
b1110 1
b11011011001 /
#30525
1!
1(
b0 )
b11011011001 *
b11100000 +
b11011011001 "!
b0 #!
b11 G
b100 P
b100 T
b1 C
b1 B
b100 C
b100 B
b100 [
b11 C
b11 B
b100 C
b100 B
b100 ]
b100011100001 D
b100011100001 $!
b100 F
b100 H
b110 O
b101 Q
b100 S
b101 U
b1 C
b1 B
b100 C
b100 B
b11 C
b11 B
b100 C
b100 B
b100011100001 %!
b1 _
b100 `
b11 a
b100 b
b0 c
b0 d
b1 e
b1 f
b10 g
b1 h
b110 i
b100 j
b101 k
0l
0m
b1 C
b1 B
b1 n
b100 C
b100 B
b100 o
b100001 ^
b100001 &!
b1 q
b100 r
b0 s
b0 t
b10 u
b1 v
b110 w
0p
0'!
b0 !!
b0 5
b1110 4
b0 3
b0 .
0,
b0 A
b0x00 A
b0xx00 A
b0xxx00 A
b0xxxx00 A
b0xxxxx00 A
bx00 A
b0 9
b0 8
b0 7
b0 6
b0 A
b0 :
b0 ;
b0 <
b0 =
b0 >
b0 ?
b0 @
#33300
0#
0!
#36075
1!
0(
1&
b0 %
#38850
0!
#41625
1!
0&
#44400
0!
#47175
1!
#49950
0!
#52725
1!
#55500
1#
b100000000000000 $
0!
b1000000 z
b0 E
b111 F
b111 G
b111 H
b1 I
b1 J
b0 K
b10 L
b1 M
b1000 O
b1001 P
b111 Q
b1 R
b1000 S
b111 T
b1001 U
1W
b1 C
b1 B
b111 C
b111 B
b111 [
b1 C
b1 B
b1 \
b111 C
b111 B
b111 ]
b10111001111001 D
b10111001111001 {
b1 E
b1 G
b0 I
b0 J
b1 K
b1 L
b10 M
b1001 O
b10 P
b1000 Q
b11 R
b111 S
b10 T
b1000 U
0W
b1 C
b1 B
b10 C
b10 B
b10 [
b11 C
b11 B
b11 \
b10 C
b10 B
b10 ]
b10011010001 D
b10 F
b11 G
b10 H
b100 O
b100 P
b11 Q
b10 S
b100 T
b11 U
1W
1X
1Y
b1 C
b1 B
b11 C
b11 B
b11 [
b10 C
b10 B
b10 \
b11 C
b11 B
b11 ]
b1110011010011001 D
b11 F
b10 G
b11 H
b101 O
b11 P
b100 Q
b11 S
b11 T
b100 U
0W
0X
0Y
b1 C
b1 B
b11 C
b11 B
b11 \
b11011011001 D
b111000000010011011011001 x
b111000000010011011011001 -
1,
#58275
1!
1(
0,
#61050
0#
0!
#63825
1!
0(
1&
#66600
0!
#69375
1!
0&
#72150
0!
#74925
1!
#77700
0!
#80475
1!
#83250
1#
b10000000000000 $
0!
b100000 z
b0 E
b111 F
b111 G
b111 H
b0 N
b1001 O
b1000 P
b1000 Q
b10 R
b111 S
b1000 T
b1000 U
b0 C
b0 B
b0 Z
b1000 C
b111 B
b111 [
b10 C
b10 B
b10 \
b1000 C
b111 B
b111 ]
b111010111000 D
b111010111000 {
b10 G
b10 I
b1 J
b10 K
b0 L
b1 M
b1 N
b1000 O
b10 P
b1001 Q
b1 R
b1000 S
b100 T
b111 U
b1 C
b1 B
b1 Z
b10 C
b10 B
b10 [
b1 C
b1 B
b1 \
b100 C
b100 B
b100 ]
b100001010001 D
b100001010001 |
b1 E
b10 F
b1 G
b100 H
b0 I
b0 J
b1 K
b1 L
b10 M
b100 O
b101 Q
b11 R
b10 S
b10 T
b101 U
1X
b1 C
b1 B
b10 C
b10 B
b10 \
b10 ]
b100010010010001 D
b100010010010001 }
b10 G
b10 H
b11 P
b11 Q
b11 T
b11 U
b1 C
b1 B
b11 C
b11 B
b11 [
b10 C
b10 B
b11 C
b11 B
b11 ]
b100011010011001 D
b100011010011001 ~
b100010000000000011010011001 x
b100010000000000011010011001 -
1,
b100 2
b100 1
b11010011001 /
#86025
1!
1(
b11010011001 *
b10001000000 +
b11010011001 "!
b11 F
b11 H
b101 O
b100 Q
b11 S
b100 U
0X
b1 C
b1 B
b11 C
b11 B
b11 \
b11011011001 D
b11011011001 $!
b11 G
b100 P
b100 T
b1 C
b1 B
b100 C
b100 B
b100 [
b11 C
b11 B
b100 C
b100 B
b100 ]
b100011100001 D
b1 C
b1 B
b100 C
b100 B
b100 5
b100 4
0,
#88800
0#
0!
#91575
1!
0(
1&
#94350
0!
#97125
1!
0&
#99900
0!
#102675
1!
#105450
0!
#108225
1!
#111000
1#
b1000000000000 $
0!
b10000 z
b0 E
b111 F
b111 G
b111 H
b0 N
b1001 O
b1000 P
b1000 Q
b10 R
b111 S
b1000 T
b1000 U
b0 C
b0 B
b0 Z
b1000 C
b111 B
b111 [
b10 C
b10 B
b10 \
b1000 C
b111 B
b111 ]
b111010111000 D
b10 G
b1 I
b1 J
b0 K
b10 L
b1 M
b1 N
b1000 O
b100 P
b111 Q
b1 R
b1000 S
b10 T
b1001 U
b1 C
b1 B
b1 Z
b100 C
b100 B
b100 [
b1 C
b1 B
b1 \
b10 C
b10 B
b10 ]
b10001100001 D
b10001100001 |
b1 E
b100 F
b1 G
b10 H
b0 I
b0 J
b1 K
b1 L
b10 M
b110 O
b10 P
b11 Q
b11 R
b100 S
b11 U
b1 C
b1 B
b10 C
b10 B
b10 [
b11 C
b11 B
b11 \
b10 C
b10 B
b10011010001 D
b10011010001 }
b10 F
b11 G
b100 O
b100 P
b10 S
b100 T
1W
1X
1Y
b1 C
b1 B
b11 C
b11 B
b11 [
b10 C
b10 B
b10 \
b11 C
b11 B
b11 ]
b1110011010011001 D
b1110011010011001 ~
b1110000000000000011010011001 x
b1110000000000000011010011001 -
1,
b1110 2
b0 1
#113775
1!
1(
b111000000000 +
b1110 5
b0 4
0,
#116550
0#
0!
#119325
1!
0(
1&
#122100
0!
#124875
1!
0&
#127650
0!
#130425
1!
#133200
0!
#135975
1!
#138750
1#
b100000000000 $
0!
b1000 z
b0 E
b111 F
b111 G
b111 H
b0 N
b1001 O
b1000 P
b1000 Q
b10 R
b111 S
b1000 T
b1000 U
0W
0X
0Y
b0 C
b0 B
b0 Z
b1000 C
b111 B
b111 [
b10 C
b10 B
b1000 C
b111 B
b111 ]
b111010111000 D
b10 G
b11 P
b11 T
b0 C
b0 B
b11 C
b11 B
b11 [
b10 C
b10 B
b11 C
b11 B
b11 ]
b11010011000 D
b11010011000 |
b11 F
b11 H
b10 I
b1 J
b10 K
b0 L
b1 M
b1 N
b100 O
b10 P
b101 Q
b1 R
b100 S
b100 T
b11 U
1Y
b1 C
b1 B
b1 Z
b10 C
b10 B
b10 [
b1 C
b1 B
b1 \
b11 C
b11 B
b1000011001010001 D
b1000011001010001 }
b1 E
b10 F
b1 G
b0 I
b0 J
b1 K
b1 L
b10 M
b100 Q
b11 R
b10 S
b10 T
b100 U
1X
0Y
b1 C
b1 B
b10 C
b10 B
b10 \
b10 ]
b100010010010001 D
b100010010010001 ~
b100100000000000010010010001 x
b100100000000000010010010001 -
1,
b100 2
b1000 1
b10010010001 /
#141525
1!
1(
b10010010001 *
b10010000000 +
b10010010001 "!
b10 G
b10 H
b11 P
b11 Q
b11 T
b11 U
b1 C
b1 B
b11 C
b11 B
b11 [
b10 C
b10 B
b11 C
b11 B
b11 ]
b100011010011001 D
b100011010011001 $!
b11 F
b11 H
b101 O
b100 Q
b11 S
b100 U
0X
b1 C
b1 B
b11 C
b11 B
b11 \
b11011011001 D
b11011011001 %!
b11 `
b11 b
b101 i
b100 k
b1 C
b1 B
b100 C
b100 B
b100 !!
b100 5
b1000 4
b100 .
0,
b100 6
#144300
0#
0!
#147075
1!
0(
1&
#149850
0!
#152625
1!
0&
#155400
0!
#158175
1!
#160950
0!
#163725
1!
#166500
1#
b10000000000 $
0!
b100 z
b0 E
b111 F
b111 G
b111 H
b0 N
b1001 O
b1000 P
b1000 Q
b10 R
b111 S
b1000 T
b1000 U
b0 C
b0 B
b0 Z
b1000 C
b111 B
b111 [
b10 C
b10 B
b10 \
b1000 C
b111 B
b111 ]
b111010111000 D
b10 G
b11 P
b11 T
b0 C
b0 B
b11 C
b11 B
b11 [
b10 C
b10 B
b11 C
b11 B
b11 ]
b11010011000 D
b11 F
b11 H
b1 I
b1 J
b0 K
b10 L
b1 M
b1 N
b100 O
b100 P
b11 Q
b1 R
b100 S
b10 T
b101 U
1W
b1 C
b1 B
b1 Z
b11 C
b11 B
b1 C
b1 B
b1 \
b10 C
b10 B
b10 ]
b10010001011001 D
b10010001011001 }
b1 E
b1 G
b10 H
b0 I
b0 J
b1 K
b1 L
b10 M
b101 O
b10 P
b11 R
b11 S
b11 U
0W
b1 C
b1 B
b10 C
b10 B
b10 [
b11 C
b11 B
b11 \
b10 C
b10 B
b10011010001 D
b10011010001 ~
b1000000000010011010001 x
b1000000000010011010001 -
1,
b0 2
b10 1
b10011010001 /
#169275
1!
1(
b10011010001 *
b100000 +
b10011010001 "!
b10 F
b11 G
b100 O
b100 P
b10 S
b100 T
1W
1X
1Y
b1 C
b1 B
b11 C
b11 B
b11 [
b10 C
b10 B
b10 \
b11 C
b11 B
b11 ]
b1110011010011001 D
b1110011010011001 $!
b11 F
b10 G
b11 H
b101 O
b11 P
b100 Q
b11 S
b11 T
b100 U
0W
0X
0Y
b1 C
b1 B
b11 C
b11 B
b11 \
b11011011001 D
b1 C
b1 B
b100 C
b100 B
b1110 !!
b0 5
b10 4
b1110 .
0,
b1110 6
#172050
0#
0!
#174825
1!
0(
1&
#177600
0!
#180375
1!
0&
#183150
0!
#185925
1!
#188700
0!
#191475
1!
#194250
1#
b1000000000 $
0!
b10 z
b0 E
b111 F
b111 G
b111 H
b0 N
b1001 O
b1000 P
b1000 Q
b10 R
b111 S
b1000 T
b1000 U
b0 C
b0 B
b0 Z
b1000 C
b111 B
b111 [
b10 C
b10 B
b10 \
b1000 C
b111 B
b111 ]
b111010111000 D
b10 G
b11 P
b11 T
b0 C
b0 B
b11 C
b11 B
b11 [
b10 C
b10 B
b11 C
b11 B
b11 ]
b11010011000 D
b11 F
b11 H
b101 O
b100 Q
b11 S
b100 U
b0 C
b0 B
b11 C
b11 B
b10 C
b10 B
b11 C
b11 B
b11010011000 }
b10 I
b1 J
b10 K
b0 L
b1 M
b1 N
b100 O
b10 P
b101 Q
b1 R
b100 S
b100 T
b11 U
1Y
b1 C
b1 B
b1 Z
b10 C
b10 B
b10 [
b1 C
b1 B
b1 \
b11 C
b11 B
b1000011001010001 D
b1000011001010001 ~
b1000000000000000011001010001 x
b1000000000000000011001010001 -
1,
b1000 2
b0 1
b11001010001 /
#197025
1!
1(
b11001010001 *
b100000000000 +
b11001010001 "!
b1 E
b10 F
b1 G
b0 I
b0 J
b1 K
b1 L
b10 M
b100 Q
b11 R
b10 S
b10 T
b100 U
1X
0Y
b1 C
b1 B
b10 C
b10 B
b10 \
b10 ]
b100010010010001 D
b100010010010001 $!
b10 G
b10 H
b11 P
b11 Q
b11 T
b11 U
b1 C
b1 B
b11 C
b11 B
b11 [
b10 C
b10 B
b11 C
b11 B
b11 ]
b100011010011001 D
b100011010011001 %!
b10 a
b11 j
b1 C
b1 B
b11 C
b11 B
b11 o
b11001 ^
b11001 &!
b11 r
b101 w
b1000100 !!
b1000 5
b0 4
b1000100 .
0,
b100 7
b100 6
#199800
0#
0!
#202575
1!
0(
1&
#205350
0!
#208125
1!
0&
#210900
0!
#213675
1!
#216450
0!
#219225
1!
#222000
1#
b100000000 $
0!
b1 z
b0 E
b111 F
b111 G
b111 H
b0 N
b1001 O
b1000 P
b1000 Q
b10 R
b111 S
b1000 T
b1000 U
0X
b0 C
b0 B
b0 Z
b1000 C
b111 B
b111 [
b10 C
b10 B
b1000 C
b111 B
b111 ]
b111010111000 D
b10 G
b11 P
b11 T
b0 C
b0 B
b11 C
b11 B
b11 [
b10 C
b10 B
b11 C
b11 B
b11 ]
b11010011000 D
b11 F
b11 H
b101 O
b100 Q
b11 S
b100 U
b0 C
b0 B
b11 C
b11 B
b10 C
b10 B
b11 C
b11 B
b1 I
b1 J
b0 K
b10 L
b1 M
b1 N
b100 O
b100 P
b11 Q
b1 R
b100 S
b10 T
b101 U
1W
b1 C
b1 B
b1 Z
b11 C
b11 B
b1 C
b1 B
b1 \
b10 C
b10 B
b10 ]
b10010001011001 D
b10010001011001 ~
b10000000000000010001011001 x
b10000000000000010001011001 -
1,
b10 2
b10001011001 /
#224775
1!
1(
b10001011001 *
b1000000000 +
b10001011001 "!
b1 E
b1 G
b10 H
b0 I
b0 J
b1 K
b1 L
b10 M
b101 O
b10 P
b11 R
b11 S
b11 U
0W
b1 C
b1 B
b10 C
b10 B
b10 [
b11 C
b11 B
b11 \
b10 C
b10 B
b10011010001 D
b10011010001 $!
b10 F
b11 G
b100 O
b100 P
b10 S
b100 T
1W
1X
1Y
b1 C
b1 B
b11 C
b11 B
b11 [
b10 C
b10 B
b10 \
b11 C
b11 B
b11 ]
b1110011010011001 D
b1110011010011001 %!
b1 C
b1 B
b11 C
b11 B
b11100000 !!
b10 5
b11100000 .
0,
b1110 7
b0 6
#227550
0#
0!
#230325
1!
0(
1&
#233100
0!
#235875
1!
0&
#238650
0!
#241425
1!
#244200
0!
#246975
1!
#249750
1#
b10000000 $
0!
b0 z
b0 E
b111 F
b111 G
b111 H
b0 N
b1001 O
b1000 P
b1000 Q
b10 R
b111 S
b1000 T
b1000 U
0W
0X
0Y
b0 C
b0 B
b0 Z
b1000 C
b111 B
b111 [
b10 C
b10 B
b1000 C
b111 B
b111 ]
b111010111000 D
b10 G
b11 P
b11 T
b0 C
b0 B
b11 C
b11 B
b11 [
b10 C
b10 B
b11 C
b11 B
b11 ]
b11010011000 D
b11 F
b11 H
b101 O
b100 Q
b11 S
b100 U
b0 C
b0 B
b11 C
b11 B
b10 C
b10 B
b11 C
b11 B
b0 C
b0 B
b11 C
b11 B
b10 C
b10 B
b11 C
b11 B
b11010011000 ~
b11010011000 x
b11010011000 -
1,
b0 2
b11010011000 /
#252525
1!
1(
b10000000 )
b11010011000 *
b0 +
b11010011000 "!
b10000000 #!
b10 I
b1 J
b10 K
b0 L
b1 M
b1 N
b100 O
b10 P
b101 Q
b1 R
b100 S
b100 T
b11 U
1Y
b1 C
b1 B
b1 Z
b10 C
b10 B
b10 [
b1 C
b1 B
b1 \
b11 C
b11 B
b1000011001010001 D
b1000011001010001 $!
b1 E
b10 F
b1 G
b0 I
b0 J
b1 K
b1 L
b10 M
b100 Q
b11 R
b10 S
b10 T
b100 U
1X
0Y
b1 C
b1 B
b10 C
b10 B
b10 \
b10 ]
b100010010010001 D
b100010010010001 %!
b10 `
b10 b
b100 i
b11 k
b1 C
b1 B
b11 C
b11 B
b1001000 !!
b0 5
b1001000 .
0,
b100 7
b1000 6
#255300
0#
0!
#258075
1!
0(
1&
#260850
0!
#263625
1!
0&
#266400
0!
#269175
1!
#271950
0!
#274725
1!
#277500
1#
b1000000 $
0!
b0 E
b111 F
b111 G
b111 H
b0 N
b1001 O
b1000 P
b1000 Q
b10 R
b111 S
b1000 T
b1000 U
0X
b0 C
b0 B
b0 Z
b1000 C
b111 B
b111 [
b10 C
b10 B
b1000 C
b111 B
b111 ]
b111010111000 D
b10 G
b11 P
b11 T
b0 C
b0 B
b11 C
b11 B
b11 [
b10 C
b10 B
b11 C
b11 B
b11 ]
b11010011000 D
b11 F
b11 H
b101 O
b100 Q
b11 S
b100 U
b0 C
b0 B
b11 C
b11 B
b10 C
b10 B
b11 C
b11 B
b0 C
b0 B
b11 C
b11 B
b10 C
b10 B
b11 C
b11 B
1,
#280275
1!
1(
b1000000 )
b1000000 #!
b1 I
b1 J
b0 K
b10 L
b1 M
b1 N
b100 O
b100 P
b11 Q
b1 R
b100 S
b10 T
b101 U
1W
b1 C
b1 B
b1 Z
b11 C
b11 B
b1 C
b1 B
b1 \
b10 C
b10 B
b10 ]
b10010001011001 D
b10010001011001 $!
b1 E
b1 G
b10 H
b0 I
b0 J
b1 K
b1 L
b10 M
b101 O
b10 P
b11 R
b11 S
b11 U
0W
b1 C
b1 B
b10 C
b10 B
b10 [
b11 C
b11 B
b11 \
b10 C
b10 B
b10011010001 D
b10011010001 %!
b11 a
b100 j
1m
b1 C
b1 B
b11 C
b11 B
b10011001 ^
b10011001 &!
b1000000010 !!
b1000000010 .
0,
b10 8
b0 7
b10 6
#283050
0#
0!
#285825
1!
0(
1&
#288600
0!
#291375
1!
0&
#294150
0!
#296925
1!
#299700
0!
#302475
1!
#305250
1#
b100000 $
0!
b0 E
b111 F
b111 G
b111 H
b0 N
b1001 O
b1000 P
b1000 Q
b10 R
b111 S
b1000 T
b1000 U
b0 C
b0 B
b0 Z
b1000 C
b111 B
b111 [
b10 C
b10 B
b10 \
b1000 C
b111 B
b111 ]
b111010111000 D
b10 G
b11 P
b11 T
b0 C
b0 B
b11 C
b11 B
b11 [
b10 C
b10 B
b11 C
b11 B
b11 ]
b11010011000 D
b11 F
b11 H
b101 O
b100 Q
b11 S
b100 U
b0 C
b0 B
b11 C
b11 B
b10 C
b10 B
b11 C
b11 B
b0 C
b0 B
b11 C
b11 B
b10 C
b10 B
b11 C
b11 B
1,
#308025
1!
1(
b100000 )
b100000 #!
b0 C
b0 B
b11 C
b11 B
b10 C
b10 B
b11 C
b11 B
b11010011000 $!
b10 I
b1 J
b10 K
b0 L
b1 M
b1 N
b100 O
b10 P
b101 Q
b1 R
b100 S
b100 T
b11 U
1Y
b1 C
b1 B
b1 Z
b10 C
b10 B
b10 [
b1 C
b1 B
b1 \
b11 C
b11 B
b1000011001010001 D
b1000011001010001 %!
b1 a
b11 b
b10 j
b100 k
0m
b1 C
b1 B
b10 C
b10 B
b10 o
b10001 ^
b10001 &!
b10 r
b100 w
b10000000 !!
b10000000 .
0,
b0 8
b1000 7
b0 6
#310800
0#
0!
#313575
1!
0(
1&
#316350
0!
#319125
1!
0&
#321900
0!
#324675
1!
#327450
0!
#330225
1!
#333000
1#
b10000 $
0!
b111 F
b111 G
b111 H
b0 I
b0 J
b1 K
b1 L
b10 M
b0 N
b1001 O
b1000 P
b1000 Q
b10 R
b111 S
b1000 T
b1000 U
0Y
b0 C
b0 B
b0 Z
b1000 C
b111 B
b111 [
b10 C
b10 B
b10 \
b1000 C
b111 B
b111 ]
b111010111000 D
b10 G
b11 P
b11 T
b0 C
b0 B
b11 C
b11 B
b11 [
b10 C
b10 B
b11 C
b11 B
b11 ]
b11010011000 D
b11 F
b11 H
b101 O
b100 Q
b11 S
b100 U
b0 C
b0 B
b11 C
b11 B
b10 C
b10 B
b11 C
b11 B
b0 C
b0 B
b11 C
b11 B
b10 C
b10 B
b11 C
b11 B
1,
#335775
1!
1(
b10000 )
b10000 #!
b0 C
b0 B
b11 C
b11 B
b10 C
b10 B
b11 C
b11 B
b1 I
b1 J
b0 K
b10 L
b1 M
b1 N
b100 O
b100 P
b11 Q
b1 R
b100 S
b10 T
b101 U
1W
b1 C
b1 B
b1 Z
b11 C
b11 B
b1 C
b1 B
b1 \
b10 C
b10 B
b10 ]
b10010001011001 D
b10010001011001 %!
b11 `
b10 b
b101 i
b11 k
b1 C
b1 B
b10 C
b10 B
b100000 !!
b100000 .
0,
b10 7
#338550
0#
0!
#341325
1!
0(
1&
#344100
0!
#346875
1!
0&
#349650
0!
#352425
1!
#355200
0!
#357975
1!
#360750
1#
b1000 $
0!
b111 F
b111 G
b111 H
b0 I
b0 J
b1 K
b1 L
b10 M
b0 N
b1001 O
b1000 P
b1000 Q
b10 R
b111 S
b1000 T
b1000 U
0W
b0 C
b0 B
b0 Z
b1000 C
b111 B
b111 [
b10 C
b10 B
b10 \
b1000 C
b111 B
b111 ]
b111010111000 D
b10 G
b11 P
b11 T
b0 C
b0 B
b11 C
b11 B
b11 [
b10 C
b10 B
b11 C
b11 B
b11 ]
b11010011000 D
b11 F
b11 H
b101 O
b100 Q
b11 S
b100 U
b0 C
b0 B
b11 C
b11 B
b10 C
b10 B
b11 C
b11 B
b0 C
b0 B
b11 C
b11 B
b10 C
b10 B
b11 C
b11 B
1,
#363525
1!
1(
b1000 )
b1000 #!
b0 C
b0 B
b11 C
b11 B
b10 C
b10 B
b11 C
b11 B
b0 C
b0 B
b11 C
b11 B
b10 C
b10 B
b11 C
b11 B
b11010011000 %!
b0 _
b10 a
b11 b
b10 c
b1 d
b10 e
b0 f
b1 g
b100 i
b101 k
b1 C
b1 B
b10 C
b10 B
b0 !!
b0 .
0,
b0 7
#366300
0#
0!
#369075
1!
0(
1&
#371850
0!
#374625
1!
0&
#377400
0!
#380175
1!
#382950
0!
#385725
1!
#388500
1#
b100 $
0!
b111 F
b111 G
b111 H
b1001 O
b1000 P
b1000 Q
b111 S
b1000 T
b1000 U
b0 C
b0 B
b1000 C
b111 B
b111 [
b10 C
b10 B
b1000 C
b111 B
b111 ]
b111010111000 D
b10 G
b11 P
b11 T
b0 C
b0 B
b11 C
b11 B
b11 [
b10 C
b10 B
b11 C
b11 B
b11 ]
b11010011000 D
b11 F
b11 H
b101 O
b100 Q
b11 S
b100 U
b0 C
b0 B
b11 C
b11 B
b10 C
b10 B
b11 C
b11 B
b0 C
b0 B
b11 C
b11 B
b10 C
b10 B
b11 C
b11 B
1,
#391275
1!
1(
b100 )
b100 #!
b0 C
b0 B
b11 C
b11 B
b10 C
b10 B
b11 C
b11 B
b0 C
b0 B
b11 C
b11 B
b10 C
b10 B
b11 C
b11 B
b1 c
b0 e
b10 f
b100 j
b11 k
1m
b1 C
b1 B
b11 C
b11 B
b11 o
b10011001 ^
b10011001 &!
b11 r
b101 w
b1000000000 !!
b1000000000 .
0,
b10 8
#394050
0#
0!
#396825
1!
0(
1&
#399600
0!
#402375
1!
0&
#405150
0!
#407925
1!
#410700
0!
#413475
1!
#416250
1#
b10 $
0!
b111 F
b111 G
b111 H
b1001 O
b1000 P
b1000 Q
b111 S
b1000 T
b1000 U
b0 C
b0 B
b1000 C
b111 B
b111 [
b10 C
b10 B
b1000 C
b111 B
b111 ]
b111010111000 D
b10 G
b11 P
b11 T
b0 C
b0 B
b11 C
b11 B
b11 [
b10 C
b10 B
b11 C
b11 B
b11 ]
b11010011000 D
b11 F
b11 H
b101 O
b100 Q
b11 S
b100 U
b0 C
b0 B
b11 C
b11 B
b10 C
b10 B
b11 C
b11 B
b0 C
b0 B
b11 C
b11 B
b10 C
b10 B
b11 C
b11 B
1,
#419025
1!
1(
b10 )
b10 #!
b0 C
b0 B
b11 C
b11 B
b10 C
b10 B
b11 C
b11 B
b0 C
b0 B
b11 C
b11 B
b10 C
b10 B
b11 C
b11 B
b0 c
b0 d
b1 e
b1 f
b10 g
b0 h
b101 i
b11 j
b100 k
0m
b0 C
b0 B
b0 n
b11 C
b11 B
b11000 ^
b11000 &!
b0 q
b10 s
b1 t
b1 u
b100 w
b0 !!
b0 .
0,
b0 8
#421800
0#
0!
#424575
1!
0(
1&
#427350
0!
#430125
1!
0&
#432900
0!
#435675
1!
#438450
0!
#441225
1!
