banbinhthuongvi_viterbi_v8/banbinhthuongvi_viterbi_v8/reports/simulation.log
[INFO] Project root : /home/iclab6/Downloads/banbinhthuongvi_viterbi_v8_layout_ready
[INFO] Running Cadence xrun with sim/run.f
TOOL:	xrun	25.09-s004: Started on May 14, 2026 at 14:50:35 +07
TOOL:	xrun(64)	25.09-s004: Started on May 14, 2026 at 14:50:36 +07
xrun(64): 25.09-s004: (c) Copyright 1995-2026 Cadence Design Systems, Inc.
xrun: *N,CLEAN: Removing existing directory ./xcelium.d.
file: rtl/viterbi_decoder.v
	module worklib.viterbi_decoder:v
		errors: 0, warnings: 0
file: tb/tb_viterbi_decoder_fileio.v
        apply_reset();
                    |
xmvlog: *W,TMTPAR (tb/tb_viterbi_decoder_fileio.v,121|20): A task enable with no arguments must not include an empty set of parentheses [10.2.2 (IEEE Std 1364-2005)].  The compiler has ignored the parentheses.  Use 'xmhelp xmvlog TMTPAR'  for further information.
	module worklib.tb_viterbi_decoder_fileio:v
		errors: 0, warnings: 1
	Elaborating the design hierarchy:
		Caching library 'worklib' ....... Done
	Top level design units:
		worklib.tb_viterbi_decoder_fileio:v (module)
	Building instance overlay tables: .................... Done
	Generating native compiled code:
		worklib.viterbi_decoder:v <0x03dbe942>
			streams:  19, words: 50438
		worklib.tb_viterbi_decoder_fileio:v <0x20a9c6c6>
			streams:   9, words: 18096
	Building instance specific data structures.
	Loading native compiled code:     .................... Done
	Design hierarchy summary:
		                 Instances  Unique
		Modules:                 2       2
		Registers:              99      99
		Scalar wires:            5       -
		Vectored wires:         15       -
		Always blocks:           3       3
		Initial blocks:          2       2
		Cont. assignments:       6      14
		Pseudo assignments:      4       -
		Process Clocks:          2       2
		Simulation timescale:  1ps
	Writing initial simulation snapshot: worklib.tb_viterbi_decoder_fileio:v
Loading snapshot worklib.tb_viterbi_decoder_fileio:v .................... Done
xcelium> source /home/cadence/XCELIUM2509/tools/xcelium/files/xmsimrc
xcelium> run
[PASS] encoded=8000 decoded=00 latency=1
[PASS] encoded=4000 decoded=00 latency=1
[PASS] encoded=2000 decoded=00 latency=1
[PASS] encoded=1000 decoded=00 latency=1
[PASS] encoded=0800 decoded=00 latency=1
[PASS] encoded=0400 decoded=00 latency=1
[PASS] encoded=0200 decoded=00 latency=1
[PASS] encoded=0100 decoded=00 latency=1
[PASS] encoded=0080 decoded=00 latency=1
[PASS] encoded=0040 decoded=00 latency=1
[PASS] encoded=0020 decoded=00 latency=1
[PASS] encoded=0010 decoded=00 latency=1
[PASS] encoded=0008 decoded=00 latency=1
[PASS] encoded=0004 decoded=00 latency=1
[PASS] encoded=0002 decoded=00 latency=1
[PASS] encoded=0001 decoded=00 latency=1
[PASS] encoded=803b decoded=04 latency=1
[PASS] encoded=403b decoded=04 latency=1
[PASS] encoded=203b decoded=04 latency=1
[PASS] encoded=103b decoded=04 latency=1
[PASS] encoded=083b decoded=04 latency=1
[PASS] encoded=043b decoded=04 latency=1
[PASS] encoded=023b decoded=04 latency=1
[PASS] encoded=013b decoded=04 latency=1
[PASS] encoded=00bb decoded=04 latency=1
[PASS] encoded=007b decoded=04 latency=1
[PASS] encoded=001b decoded=04 latency=1
[PASS] encoded=002b decoded=04 latency=1
[PASS] encoded=0033 decoded=04 latency=1
[PASS] encoded=003f decoded=04 latency=1
[PASS] encoded=0039 decoded=04 latency=1
[PASS] encoded=003a decoded=04 latency=1
[PASS] encoded=80ec decoded=08 latency=1
[PASS] encoded=40ec decoded=08 latency=1
[PASS] encoded=20ec decoded=08 latency=1
[PASS] encoded=10ec decoded=08 latency=1
[PASS] encoded=08ec decoded=08 latency=1
[PASS] encoded=04ec decoded=08 latency=1
[PASS] encoded=02ec decoded=08 latency=1
[PASS] encoded=01ec decoded=08 latency=1
[PASS] encoded=006c decoded=08 latency=1
[PASS] encoded=00ac decoded=08 latency=1
[PASS] encoded=00cc decoded=08 latency=1
[PASS] encoded=00fc decoded=08 latency=1
[PASS] encoded=00e4 decoded=08 latency=1
[PASS] encoded=00e8 decoded=08 latency=1
[PASS] encoded=00ee decoded=08 latency=1
[PASS] encoded=00ed decoded=08 latency=1
[PASS] encoded=80d7 decoded=0c latency=1
[PASS] encoded=40d7 decoded=0c latency=1
[PASS] encoded=20d7 decoded=0c latency=1
[PASS] encoded=10d7 decoded=0c latency=1
[PASS] encoded=08d7 decoded=0c latency=1
[PASS] encoded=04d7 decoded=0c latency=1
[PASS] encoded=02d7 decoded=0c latency=1
[PASS] encoded=01d7 decoded=0c latency=1
[PASS] encoded=0057 decoded=0c latency=1
[PASS] encoded=0097 decoded=0c latency=1
[PASS] encoded=00f7 decoded=0c latency=1
[PASS] encoded=00c7 decoded=0c latency=1
[PASS] encoded=00df decoded=0c latency=1
[PASS] encoded=00d3 decoded=0c latency=1
[PASS] encoded=00d5 decoded=0c latency=1
[PASS] encoded=00d6 decoded=0c latency=1
[PASS] encoded=83b0 decoded=10 latency=1
[PASS] encoded=43b0 decoded=10 latency=1
[PASS] encoded=23b0 decoded=10 latency=1
[PASS] encoded=13b0 decoded=10 latency=1
[PASS] encoded=0bb0 decoded=10 latency=1
[PASS] encoded=07b0 decoded=10 latency=1
[PASS] encoded=01b0 decoded=10 latency=1
[PASS] encoded=02b0 decoded=10 latency=1
[PASS] encoded=0330 decoded=10 latency=1
[PASS] encoded=03f0 decoded=10 latency=1
[PASS] encoded=0390 decoded=10 latency=1
[PASS] encoded=03a0 decoded=10 latency=1
[PASS] encoded=03b8 decoded=10 latency=1
[PASS] encoded=03b4 decoded=10 latency=1
[PASS] encoded=03b2 decoded=10 latency=1
[PASS] encoded=03b1 decoded=10 latency=1
[PASS] encoded=838b decoded=14 latency=1
[PASS] encoded=438b decoded=14 latency=1
[PASS] encoded=238b decoded=14 latency=1
[PASS] encoded=138b decoded=14 latency=1
[PASS] encoded=0b8b decoded=14 latency=1
[PASS] encoded=078b decoded=14 latency=1
[PASS] encoded=018b decoded=14 latency=1
[PASS] encoded=028b decoded=14 latency=1
[PASS] encoded=030b decoded=14 latency=1
[PASS] encoded=03cb decoded=14 latency=1
[PASS] encoded=03ab decoded=14 latency=1
[PASS] encoded=039b decoded=14 latency=1
[PASS] encoded=0383 decoded=14 latency=1
[PASS] encoded=038f decoded=14 latency=1
[PASS] encoded=0389 decoded=14 latency=1
[PASS] encoded=038a decoded=14 latency=1
[PASS] encoded=835c decoded=18 latency=1
[PASS] encoded=435c decoded=18 latency=1
[PASS] encoded=235c decoded=18 latency=1
[PASS] encoded=135c decoded=18 latency=1
[PASS] encoded=0b5c decoded=18 latency=1
[PASS] encoded=075c decoded=18 latency=1
[PASS] encoded=015c decoded=18 latency=1
[PASS] encoded=025c decoded=18 latency=1
[PASS] encoded=03dc decoded=18 latency=1
[PASS] encoded=031c decoded=18 latency=1
[PASS] encoded=037c decoded=18 latency=1
[PASS] encoded=034c decoded=18 latency=1
[PASS] encoded=0354 decoded=18 latency=1
[PASS] encoded=0358 decoded=18 latency=1
[PASS] encoded=035e decoded=18 latency=1
[PASS] encoded=035d decoded=18 latency=1
[PASS] encoded=8367 decoded=1c latency=1
[PASS] encoded=4367 decoded=1c latency=1
[PASS] encoded=2367 decoded=1c latency=1
[PASS] encoded=1367 decoded=1c latency=1
[PASS] encoded=0b67 decoded=1c latency=1
[PASS] encoded=0767 decoded=1c latency=1
[PASS] encoded=0167 decoded=1c latency=1
[PASS] encoded=0267 decoded=1c latency=1
[PASS] encoded=03e7 decoded=1c latency=1
[PASS] encoded=0327 decoded=1c latency=1
[PASS] encoded=0347 decoded=1c latency=1
[PASS] encoded=0377 decoded=1c latency=1
[PASS] encoded=036f decoded=1c latency=1
[PASS] encoded=0363 decoded=1c latency=1
[PASS] encoded=0365 decoded=1c latency=1
[PASS] encoded=0366 decoded=1c latency=1
[PASS] encoded=8ec0 decoded=20 latency=1
[PASS] encoded=4ec0 decoded=20 latency=1
[PASS] encoded=2ec0 decoded=20 latency=1
[PASS] encoded=1ec0 decoded=20 latency=1
[PASS] encoded=06c0 decoded=20 latency=1
[PASS] encoded=0ac0 decoded=20 latency=1
[PASS] encoded=0cc0 decoded=20 latency=1
[PASS] encoded=0fc0 decoded=20 latency=1
[PASS] encoded=0e40 decoded=20 latency=1
[PASS] encoded=0e80 decoded=20 latency=1
[PASS] encoded=0ee0 decoded=20 latency=1
[PASS] encoded=0ed0 decoded=20 latency=1
[PASS] encoded=0ec8 decoded=20 latency=1
[PASS] encoded=0ec4 decoded=20 latency=1
[PASS] encoded=0ec2 decoded=20 latency=1
[PASS] encoded=0ec1 decoded=20 latency=1
[PASS] encoded=8efb decoded=24 latency=1
[PASS] encoded=4efb decoded=24 latency=1
[PASS] encoded=2efb decoded=24 latency=1
[PASS] encoded=1efb decoded=24 latency=1
[PASS] encoded=06fb decoded=24 latency=1
[PASS] encoded=0afb decoded=24 latency=1
[PASS] encoded=0cfb decoded=24 latency=1
[PASS] encoded=0ffb decoded=24 latency=1
[PASS] encoded=0e7b decoded=24 latency=1
[PASS] encoded=0ebb decoded=24 latency=1
[PASS] encoded=0edb decoded=24 latency=1
[PASS] encoded=0eeb decoded=24 latency=1
[PASS] encoded=0ef3 decoded=24 latency=1
[PASS] encoded=0eff decoded=24 latency=1
[PASS] encoded=0ef9 decoded=24 latency=1
[PASS] encoded=0efa decoded=24 latency=1
[PASS] encoded=8e2c decoded=28 latency=1
[PASS] encoded=4e2c decoded=28 latency=1
[PASS] encoded=2e2c decoded=28 latency=1
[PASS] encoded=1e2c decoded=28 latency=1
[PASS] encoded=062c decoded=28 latency=1
[PASS] encoded=0a2c decoded=28 latency=1
[PASS] encoded=0c2c decoded=28 latency=1
[PASS] encoded=0f2c decoded=28 latency=1
[PASS] encoded=0eac decoded=28 latency=1
[PASS] encoded=0e6c decoded=28 latency=1
[PASS] encoded=0e0c decoded=28 latency=1
[PASS] encoded=0e3c decoded=28 latency=1
[PASS] encoded=0e24 decoded=28 latency=1
[PASS] encoded=0e28 decoded=28 latency=1
[PASS] encoded=0e2e decoded=28 latency=1
[PASS] encoded=0e2d decoded=28 latency=1
[PASS] encoded=8e17 decoded=2c latency=1
[PASS] encoded=4e17 decoded=2c latency=1
[PASS] encoded=2e17 decoded=2c latency=1
[PASS] encoded=1e17 decoded=2c latency=1
[PASS] encoded=0617 decoded=2c latency=1
[PASS] encoded=0a17 decoded=2c latency=1
[PASS] encoded=0c17 decoded=2c latency=1
[PASS] encoded=0f17 decoded=2c latency=1
[PASS] encoded=0e97 decoded=2c latency=1
[PASS] encoded=0e57 decoded=2c latency=1
[PASS] encoded=0e37 decoded=2c latency=1
[PASS] encoded=0e07 decoded=2c latency=1
[PASS] encoded=0e1f decoded=2c latency=1
[PASS] encoded=0e13 decoded=2c latency=1
[PASS] encoded=0e15 decoded=2c latency=1
[PASS] encoded=0e16 decoded=2c latency=1
[PASS] encoded=8d70 decoded=30 latency=1
[PASS] encoded=4d70 decoded=30 latency=1
[PASS] encoded=2d70 decoded=30 latency=1
[PASS] encoded=1d70 decoded=30 latency=1
[PASS] encoded=0570 decoded=30 latency=1
[PASS] encoded=0970 decoded=30 latency=1
[PASS] encoded=0f70 decoded=30 latency=1
[PASS] encoded=0c70 decoded=30 latency=1
[PASS] encoded=0df0 decoded=30 latency=1
[PASS] encoded=0d30 decoded=30 latency=1
[PASS] encoded=0d50 decoded=30 latency=1
[PASS] encoded=0d60 decoded=30 latency=1
[PASS] encoded=0d78 decoded=30 latency=1
[PASS] encoded=0d74 decoded=30 latency=1
[PASS] encoded=0d72 decoded=30 latency=1
[PASS] encoded=0d71 decoded=30 latency=1
[PASS] encoded=8d4b decoded=34 latency=1
[PASS] encoded=4d4b decoded=34 latency=1
[PASS] encoded=2d4b decoded=34 latency=1
[PASS] encoded=1d4b decoded=34 latency=1
[PASS] encoded=054b decoded=34 latency=1
[PASS] encoded=094b decoded=34 latency=1
[PASS] encoded=0f4b decoded=34 latency=1
[PASS] encoded=0c4b decoded=34 latency=1
[PASS] encoded=0dcb decoded=34 latency=1
[PASS] encoded=0d0b decoded=34 latency=1
[PASS] encoded=0d6b decoded=34 latency=1
[PASS] encoded=0d5b decoded=34 latency=1
[PASS] encoded=0d43 decoded=34 latency=1
[PASS] encoded=0d4f decoded=34 latency=1
[PASS] encoded=0d49 decoded=34 latency=1
[PASS] encoded=0d4a decoded=34 latency=1
[PASS] encoded=8d9c decoded=38 latency=1
[PASS] encoded=4d9c decoded=38 latency=1
[PASS] encoded=2d9c decoded=38 latency=1
[PASS] encoded=1d9c decoded=38 latency=1
[PASS] encoded=059c decoded=38 latency=1
[PASS] encoded=099c decoded=38 latency=1
[PASS] encoded=0f9c decoded=38 latency=1
[PASS] encoded=0c9c decoded=38 latency=1
[PASS] encoded=0d1c decoded=38 latency=1
[PASS] encoded=0ddc decoded=38 latency=1
[PASS] encoded=0dbc decoded=38 latency=1
[PASS] encoded=0d8c decoded=38 latency=1
[PASS] encoded=0d94 decoded=38 latency=1
[PASS] encoded=0d98 decoded=38 latency=1
[PASS] encoded=0d9e decoded=38 latency=1
[PASS] encoded=0d9d decoded=38 latency=1
[PASS] encoded=8da7 decoded=3c latency=1
[PASS] encoded=4da7 decoded=3c latency=1
[PASS] encoded=2da7 decoded=3c latency=1
[PASS] encoded=1da7 decoded=3c latency=1
[PASS] encoded=05a7 decoded=3c latency=1
[PASS] encoded=09a7 decoded=3c latency=1
[PASS] encoded=0fa7 decoded=3c latency=1
[PASS] encoded=0ca7 decoded=3c latency=1
[PASS] encoded=0d27 decoded=3c latency=1
[PASS] encoded=0de7 decoded=3c latency=1
[PASS] encoded=0d87 decoded=3c latency=1
[PASS] encoded=0db7 decoded=3c latency=1
[PASS] encoded=0daf decoded=3c latency=1
[PASS] encoded=0da3 decoded=3c latency=1
[PASS] encoded=0da5 decoded=3c latency=1
[PASS] encoded=0da6 decoded=3c latency=1
[PASS] encoded=bb00 decoded=40 latency=1
[PASS] encoded=7b00 decoded=40 latency=1
[PASS] encoded=1b00 decoded=40 latency=1
[PASS] encoded=2b00 decoded=40 latency=1
[PASS] encoded=3300 decoded=40 latency=1
[PASS] encoded=3f00 decoded=40 latency=1
[PASS] encoded=3900 decoded=40 latency=1
[PASS] encoded=3a00 decoded=40 latency=1
[PASS] encoded=3b80 decoded=40 latency=1
[PASS] encoded=3b40 decoded=40 latency=1
[PASS] encoded=3b20 decoded=40 latency=1
[PASS] encoded=3b10 decoded=40 latency=1
[PASS] encoded=3b08 decoded=40 latency=1
[PASS] encoded=3b04 decoded=40 latency=1
[PASS] encoded=3b02 decoded=40 latency=1
[PASS] encoded=3b01 decoded=40 latency=1
[PASS] encoded=bb3b decoded=44 latency=1
[PASS] encoded=7b3b decoded=44 latency=1
[PASS] encoded=1b3b decoded=44 latency=1
[PASS] encoded=2b3b decoded=44 latency=1
[PASS] encoded=333b decoded=44 latency=1
[PASS] encoded=3f3b decoded=44 latency=1
[PASS] encoded=393b decoded=44 latency=1
[PASS] encoded=3a3b decoded=44 latency=1
[PASS] encoded=3bbb decoded=44 latency=1
[PASS] encoded=3b7b decoded=44 latency=1
[PASS] encoded=3b1b decoded=44 latency=1
[PASS] encoded=3b2b decoded=44 latency=1
[PASS] encoded=3b33 decoded=44 latency=1
[PASS] encoded=3b3f decoded=44 latency=1
[PASS] encoded=3b39 decoded=44 latency=1
[PASS] encoded=3b3a decoded=44 latency=1
[PASS] encoded=bbec decoded=48 latency=1
[PASS] encoded=7bec decoded=48 latency=1
[PASS] encoded=1bec decoded=48 latency=1
[PASS] encoded=2bec decoded=48 latency=1
[PASS] encoded=33ec decoded=48 latency=1
[PASS] encoded=3fec decoded=48 latency=1
[PASS] encoded=39ec decoded=48 latency=1
[PASS] encoded=3aec decoded=48 latency=1
[PASS] encoded=3b6c decoded=48 latency=1
[PASS] encoded=3bac decoded=48 latency=1
[PASS] encoded=3bcc decoded=48 latency=1
[PASS] encoded=3bfc decoded=48 latency=1
[PASS] encoded=3be4 decoded=48 latency=1
[PASS] encoded=3be8 decoded=48 latency=1
[PASS] encoded=3bee decoded=48 latency=1
[PASS] encoded=3bed decoded=48 latency=1
[PASS] encoded=bbd7 decoded=4c latency=1
[PASS] encoded=7bd7 decoded=4c latency=1
[PASS] encoded=1bd7 decoded=4c latency=1
[PASS] encoded=2bd7 decoded=4c latency=1
[PASS] encoded=33d7 decoded=4c latency=1
[PASS] encoded=3fd7 decoded=4c latency=1
[PASS] encoded=39d7 decoded=4c latency=1
[PASS] encoded=3ad7 decoded=4c latency=1
[PASS] encoded=3b57 decoded=4c latency=1
[PASS] encoded=3b97 decoded=4c latency=1
[PASS] encoded=3bf7 decoded=4c latency=1
[PASS] encoded=3bc7 decoded=4c latency=1
[PASS] encoded=3bdf decoded=4c latency=1
[PASS] encoded=3bd3 decoded=4c latency=1
[PASS] encoded=3bd5 decoded=4c latency=1
[PASS] encoded=3bd6 decoded=4c latency=1
[PASS] encoded=b8b0 decoded=50 latency=1
[PASS] encoded=78b0 decoded=50 latency=1
[PASS] encoded=18b0 decoded=50 latency=1
[PASS] encoded=28b0 decoded=50 latency=1
[PASS] encoded=30b0 decoded=50 latency=1
[PASS] encoded=3cb0 decoded=50 latency=1
[PASS] encoded=3ab0 decoded=50 latency=1
[PASS] encoded=39b0 decoded=50 latency=1
[PASS] encoded=3830 decoded=50 latency=1
[PASS] encoded=38f0 decoded=50 latency=1
[PASS] encoded=3890 decoded=50 latency=1
[PASS] encoded=38a0 decoded=50 latency=1
[PASS] encoded=38b8 decoded=50 latency=1
[PASS] encoded=38b4 decoded=50 latency=1
[PASS] encoded=38b2 decoded=50 latency=1
[PASS] encoded=38b1 decoded=50 latency=1
[PASS] encoded=b88b decoded=54 latency=1
[PASS] encoded=788b decoded=54 latency=1
[PASS] encoded=188b decoded=54 latency=1
[PASS] encoded=288b decoded=54 latency=1
[PASS] encoded=308b decoded=54 latency=1
[PASS] encoded=3c8b decoded=54 latency=1
[PASS] encoded=3a8b decoded=54 latency=1
[PASS] encoded=398b decoded=54 latency=1
[PASS] encoded=380b decoded=54 latency=1
[PASS] encoded=38cb decoded=54 latency=1
[PASS] encoded=38ab decoded=54 latency=1
[PASS] encoded=389b decoded=54 latency=1
[PASS] encoded=3883 decoded=54 latency=1
[PASS] encoded=388f decoded=54 latency=1
[PASS] encoded=3889 decoded=54 latency=1
[PASS] encoded=388a decoded=54 latency=1
[PASS] encoded=b85c decoded=58 latency=1
[PASS] encoded=785c decoded=58 latency=1
[PASS] encoded=185c decoded=58 latency=1
[PASS] encoded=285c decoded=58 latency=1
[PASS] encoded=305c decoded=58 latency=1
[PASS] encoded=3c5c decoded=58 latency=1
[PASS] encoded=3a5c decoded=58 latency=1
[PASS] encoded=395c decoded=58 latency=1
[PASS] encoded=38dc decoded=58 latency=1
[PASS] encoded=381c decoded=58 latency=1
[PASS] encoded=387c decoded=58 latency=1
[PASS] encoded=384c decoded=58 latency=1
[PASS] encoded=3854 decoded=58 latency=1
[PASS] encoded=3858 decoded=58 latency=1
[PASS] encoded=385e decoded=58 latency=1
[PASS] encoded=385d decoded=58 latency=1
[PASS] encoded=b867 decoded=5c latency=1
[PASS] encoded=7867 decoded=5c latency=1
[PASS] encoded=1867 decoded=5c latency=1
[PASS] encoded=2867 decoded=5c latency=1
[PASS] encoded=3067 decoded=5c latency=1
[PASS] encoded=3c67 decoded=5c latency=1
[PASS] encoded=3a67 decoded=5c latency=1
[PASS] encoded=3967 decoded=5c latency=1
[PASS] encoded=38e7 decoded=5c latency=1
[PASS] encoded=3827 decoded=5c latency=1
[PASS] encoded=3847 decoded=5c latency=1
[PASS] encoded=3877 decoded=5c latency=1
[PASS] encoded=386f decoded=5c latency=1
[PASS] encoded=3863 decoded=5c latency=1
[PASS] encoded=3865 decoded=5c latency=1
[PASS] encoded=3866 decoded=5c latency=1
[PASS] encoded=b5c0 decoded=60 latency=1
[PASS] encoded=75c0 decoded=60 latency=1
[PASS] encoded=15c0 decoded=60 latency=1
[PASS] encoded=25c0 decoded=60 latency=1
[PASS] encoded=3dc0 decoded=60 latency=1
[PASS] encoded=31c0 decoded=60 latency=1
[PASS] encoded=37c0 decoded=60 latency=1
[PASS] encoded=34c0 decoded=60 latency=1
[PASS] encoded=3540 decoded=60 latency=1
[PASS] encoded=3580 decoded=60 latency=1
[PASS] encoded=35e0 decoded=60 latency=1
[PASS] encoded=35d0 decoded=60 latency=1
[PASS] encoded=35c8 decoded=60 latency=1
[PASS] encoded=35c4 decoded=60 latency=1
[PASS] encoded=35c2 decoded=60 latency=1
[PASS] encoded=35c1 decoded=60 latency=1
[PASS] encoded=b5fb decoded=64 latency=1
[PASS] encoded=75fb decoded=64 latency=1
[PASS] encoded=15fb decoded=64 latency=1
[PASS] encoded=25fb decoded=64 latency=1
[PASS] encoded=3dfb decoded=64 latency=1
[PASS] encoded=31fb decoded=64 latency=1
[PASS] encoded=37fb decoded=64 latency=1
[PASS] encoded=34fb decoded=64 latency=1
[PASS] encoded=357b decoded=64 latency=1
[PASS] encoded=35bb decoded=64 latency=1
[PASS] encoded=35db decoded=64 latency=1
[PASS] encoded=35eb decoded=64 latency=1
[PASS] encoded=35f3 decoded=64 latency=1
[PASS] encoded=35ff decoded=64 latency=1
[PASS] encoded=35f9 decoded=64 latency=1
[PASS] encoded=35fa decoded=64 latency=1
[PASS] encoded=b52c decoded=68 latency=1
[PASS] encoded=752c decoded=68 latency=1
[PASS] encoded=152c decoded=68 latency=1
[PASS] encoded=252c decoded=68 latency=1
[PASS] encoded=3d2c decoded=68 latency=1
[PASS] encoded=312c decoded=68 latency=1
[PASS] encoded=372c decoded=68 latency=1
[PASS] encoded=342c decoded=68 latency=1
[PASS] encoded=35ac decoded=68 latency=1
[PASS] encoded=356c decoded=68 latency=1
[PASS] encoded=350c decoded=68 latency=1
[PASS] encoded=353c decoded=68 latency=1
[PASS] encoded=3524 decoded=68 latency=1
[PASS] encoded=3528 decoded=68 latency=1
[PASS] encoded=352e decoded=68 latency=1
[PASS] encoded=352d decoded=68 latency=1
[PASS] encoded=b517 decoded=6c latency=1
[PASS] encoded=7517 decoded=6c latency=1
[PASS] encoded=1517 decoded=6c latency=1
[PASS] encoded=2517 decoded=6c latency=1
[PASS] encoded=3d17 decoded=6c latency=1
[PASS] encoded=3117 decoded=6c latency=1
[PASS] encoded=3717 decoded=6c latency=1
[PASS] encoded=3417 decoded=6c latency=1
[PASS] encoded=3597 decoded=6c latency=1
[PASS] encoded=3557 decoded=6c latency=1
[PASS] encoded=3537 decoded=6c latency=1
[PASS] encoded=3507 decoded=6c latency=1
[PASS] encoded=351f decoded=6c latency=1
[PASS] encoded=3513 decoded=6c latency=1
[PASS] encoded=3515 decoded=6c latency=1
[PASS] encoded=3516 decoded=6c latency=1
[PASS] encoded=b670 decoded=70 latency=1
[PASS] encoded=7670 decoded=70 latency=1
[PASS] encoded=1670 decoded=70 latency=1
[PASS] encoded=2670 decoded=70 latency=1
[PASS] encoded=3e70 decoded=70 latency=1
[PASS] encoded=3270 decoded=70 latency=1
[PASS] encoded=3470 decoded=70 latency=1
[PASS] encoded=3770 decoded=70 latency=1
[PASS] encoded=36f0 decoded=70 latency=1
[PASS] encoded=3630 decoded=70 latency=1
[PASS] encoded=3650 decoded=70 latency=1
[PASS] encoded=3660 decoded=70 latency=1
[PASS] encoded=3678 decoded=70 latency=1
[PASS] encoded=3674 decoded=70 latency=1
[PASS] encoded=3672 decoded=70 latency=1
[PASS] encoded=3671 decoded=70 latency=1
[PASS] encoded=b64b decoded=74 latency=1
[PASS] encoded=764b decoded=74 latency=1
[PASS] encoded=164b decoded=74 latency=1
[PASS] encoded=264b decoded=74 latency=1
[PASS] encoded=3e4b decoded=74 latency=1
[PASS] encoded=324b decoded=74 latency=1
[PASS] encoded=344b decoded=74 latency=1
[PASS] encoded=374b decoded=74 latency=1
[PASS] encoded=36cb decoded=74 latency=1
[PASS] encoded=360b decoded=74 latency=1
[PASS] encoded=366b decoded=74 latency=1
[PASS] encoded=365b decoded=74 latency=1
[PASS] encoded=3643 decoded=74 latency=1
[PASS] encoded=364f decoded=74 latency=1
[PASS] encoded=3649 decoded=74 latency=1
[PASS] encoded=364a decoded=74 latency=1
[PASS] encoded=b69c decoded=78 latency=1
[PASS] encoded=769c decoded=78 latency=1
[PASS] encoded=169c decoded=78 latency=1
[PASS] encoded=269c decoded=78 latency=1
[PASS] encoded=3e9c decoded=78 latency=1
[PASS] encoded=329c decoded=78 latency=1
[PASS] encoded=349c decoded=78 latency=1
[PASS] encoded=379c decoded=78 latency=1
[PASS] encoded=361c decoded=78 latency=1
[PASS] encoded=36dc decoded=78 latency=1
[PASS] encoded=36bc decoded=78 latency=1
[PASS] encoded=368c decoded=78 latency=1
[PASS] encoded=3694 decoded=78 latency=1
[PASS] encoded=3698 decoded=78 latency=1
[PASS] encoded=369e decoded=78 latency=1
[PASS] encoded=369d decoded=78 latency=1
[PASS] encoded=b6a7 decoded=7c latency=1
[PASS] encoded=76a7 decoded=7c latency=1
[PASS] encoded=16a7 decoded=7c latency=1
[PASS] encoded=26a7 decoded=7c latency=1
[PASS] encoded=3ea7 decoded=7c latency=1
[PASS] encoded=32a7 decoded=7c latency=1
[PASS] encoded=34a7 decoded=7c latency=1
[PASS] encoded=37a7 decoded=7c latency=1
[PASS] encoded=3627 decoded=7c latency=1
[PASS] encoded=36e7 decoded=7c latency=1
[PASS] encoded=3687 decoded=7c latency=1
[PASS] encoded=36b7 decoded=7c latency=1
[PASS] encoded=36af decoded=7c latency=1
[PASS] encoded=36a3 decoded=7c latency=1
[PASS] encoded=36a5 decoded=7c latency=1
[PASS] encoded=36a6 decoded=7c latency=1
[PASS] encoded=6c00 decoded=80 latency=1
[PASS] encoded=ac00 decoded=80 latency=1
[PASS] encoded=cc00 decoded=80 latency=1
[PASS] encoded=fc00 decoded=80 latency=1
[PASS] encoded=e400 decoded=80 latency=1
[PASS] encoded=e800 decoded=80 latency=1
[PASS] encoded=ee00 decoded=80 latency=1
[PASS] encoded=ed00 decoded=80 latency=1
[PASS] encoded=ec80 decoded=80 latency=1
[PASS] encoded=ec40 decoded=80 latency=1
[PASS] encoded=ec20 decoded=80 latency=1
[PASS] encoded=ec10 decoded=80 latency=1
[PASS] encoded=ec08 decoded=80 latency=1
[PASS] encoded=ec04 decoded=80 latency=1
[PASS] encoded=ec02 decoded=80 latency=1
[PASS] encoded=ec01 decoded=80 latency=1
[PASS] encoded=6c3b decoded=84 latency=1
[PASS] encoded=ac3b decoded=84 latency=1
[PASS] encoded=cc3b decoded=84 latency=1
[PASS] encoded=fc3b decoded=84 latency=1
[PASS] encoded=e43b decoded=84 latency=1
[PASS] encoded=e83b decoded=84 latency=1
[PASS] encoded=ee3b decoded=84 latency=1
[PASS] encoded=ed3b decoded=84 latency=1
[PASS] encoded=ecbb decoded=84 latency=1
[PASS] encoded=ec7b decoded=84 latency=1
[PASS] encoded=ec1b decoded=84 latency=1
[PASS] encoded=ec2b decoded=84 latency=1
[PASS] encoded=ec33 decoded=84 latency=1
[PASS] encoded=ec3f decoded=84 latency=1
[PASS] encoded=ec39 decoded=84 latency=1
[PASS] encoded=ec3a decoded=84 latency=1
[PASS] encoded=6cec decoded=88 latency=1
[PASS] encoded=acec decoded=88 latency=1
[PASS] encoded=ccec decoded=88 latency=1
[PASS] encoded=fcec decoded=88 latency=1
[PASS] encoded=e4ec decoded=88 latency=1
[PASS] encoded=e8ec decoded=88 latency=1
[PASS] encoded=eeec decoded=88 latency=1
[PASS] encoded=edec decoded=88 latency=1
[PASS] encoded=ec6c decoded=88 latency=1
[PASS] encoded=ecac decoded=88 latency=1
[PASS] encoded=eccc decoded=88 latency=1
[PASS] encoded=ecfc decoded=88 latency=1
[PASS] encoded=ece4 decoded=88 latency=1
[PASS] encoded=ece8 decoded=88 latency=1
[PASS] encoded=ecee decoded=88 latency=1
[PASS] encoded=eced decoded=88 latency=1
[PASS] encoded=6cd7 decoded=8c latency=1
[PASS] encoded=acd7 decoded=8c latency=1
[PASS] encoded=ccd7 decoded=8c latency=1
[PASS] encoded=fcd7 decoded=8c latency=1
[PASS] encoded=e4d7 decoded=8c latency=1
[PASS] encoded=e8d7 decoded=8c latency=1
[PASS] encoded=eed7 decoded=8c latency=1
[PASS] encoded=edd7 decoded=8c latency=1
[PASS] encoded=ec57 decoded=8c latency=1
[PASS] encoded=ec97 decoded=8c latency=1
[PASS] encoded=ecf7 decoded=8c latency=1
[PASS] encoded=ecc7 decoded=8c latency=1
[PASS] encoded=ecdf decoded=8c latency=1
[PASS] encoded=ecd3 decoded=8c latency=1
[PASS] encoded=ecd5 decoded=8c latency=1
[PASS] encoded=ecd6 decoded=8c latency=1
[PASS] encoded=6fb0 decoded=90 latency=1
[PASS] encoded=afb0 decoded=90 latency=1
[PASS] encoded=cfb0 decoded=90 latency=1
[PASS] encoded=ffb0 decoded=90 latency=1
[PASS] encoded=e7b0 decoded=90 latency=1
[PASS] encoded=ebb0 decoded=90 latency=1
[PASS] encoded=edb0 decoded=90 latency=1
[PASS] encoded=eeb0 decoded=90 latency=1
[PASS] encoded=ef30 decoded=90 latency=1
[PASS] encoded=eff0 decoded=90 latency=1
[PASS] encoded=ef90 decoded=90 latency=1
[PASS] encoded=efa0 decoded=90 latency=1
[PASS] encoded=efb8 decoded=90 latency=1
[PASS] encoded=efb4 decoded=90 latency=1
[PASS] encoded=efb2 decoded=90 latency=1
[PASS] encoded=efb1 decoded=90 latency=1
[PASS] encoded=6f8b decoded=94 latency=1
[PASS] encoded=af8b decoded=94 latency=1
[PASS] encoded=cf8b decoded=94 latency=1
[PASS] encoded=ff8b decoded=94 latency=1
[PASS] encoded=e78b decoded=94 latency=1
